{
  "global" : false,
  "icon" : "fontawesome-5.14.0:Dollar%20Sign:SOLID",
  "host_template_types" : [ "PAGE" ],
  "module_id" : 108613765699,
  "label" : "pricing-card - Bizphile",
  "is_available_for_new_content" : true
}