{
  "label" : "Bizphile-clone-Anjana",
  "preview_path" : "./templates/home.html",
  "screenshot_path" : "./images/template-previews/home-new.png",
  "enable_domain_stylesheets" : false,
  "is_available_for_new_content" : true,
  "responsive_breakpoints" : [ {
    "name" : "mobile",
    "previewWidth" : {
      "value" : 477,
      "units" : "px"
    },
    "mediaQuery" : "@media (max-width: 767px)",
    "messages" : { }
  } ],
  "author" : {
    "name" : "Niswey",
    "email" : "av@niswey.com",
    "url" : "https://www.niswey.com/"
  },
  "documentation_url" : "https://www.niswey.com/theme-documentation-bizphile",
  "example_url" : "https://www.niswey.com/home-bizphile",
  "license" : "./license.txt"
}