{
  "background_color.default" : {
    "message" : "",
    "description" : null,
    "placeholders" : null
  },
  "background_color.help_text" : {
    "message" : "",
    "description" : null,
    "placeholders" : null
  },
  "background_color.inline_help_text" : {
    "message" : "",
    "description" : null,
    "placeholders" : null
  },
  "background_color.label" : {
    "message" : "Color",
    "description" : null,
    "placeholders" : null
  },
  "background_color.placeholder" : {
    "message" : "",
    "description" : null,
    "placeholders" : null
  },
  "expand_link_text.default" : {
    "message" : "顯示全部",
    "description" : "",
    "placeholders" : null
  },
  "expand_link_text.label" : {
    "message" : "當可以顯示的項目超出顯示值上限時所顯示的文字，若留空則省略連結",
    "description" : "",
    "placeholders" : null
  },
  "filter_type.choices.author" : {
    "message" : "作者",
    "description" : "",
    "placeholders" : null
  },
  "filter_type.choices.month" : {
    "message" : "月份",
    "description" : "",
    "placeholders" : null
  },
  "filter_type.choices.tag" : {
    "message" : "標記",
    "description" : "",
    "placeholders" : null
  },
  "filter_type.label" : {
    "message" : "篩選連結的值清單",
    "description" : "",
    "placeholders" : null
  },
  "filter_type.placeholder" : {
    "message" : "搜尋",
    "description" : "",
    "placeholders" : null
  },
  "list_title.default" : {
    "message" : "以標記搜尋貼文",
    "description" : "",
    "placeholders" : null
  },
  "list_title.label" : {
    "message" : "列出要顯示的標題",
    "description" : "",
    "placeholders" : null
  },
  "max_links.label" : {
    "message" : "顯示的篩選值數目上限，留空則代表顯示全部",
    "description" : "",
    "placeholders" : null
  },
  "name" : {
    "message" : "Post Filter Section",
    "description" : null,
    "placeholders" : null
  },
  "order_by.choices.name" : {
    "message" : "名稱",
    "description" : "",
    "placeholders" : null
  },
  "order_by.choices.post_count" : {
    "message" : "貼文數",
    "description" : "",
    "placeholders" : null
  },
  "order_by.label" : {
    "message" : "篩選連結的值順序",
    "description" : "",
    "placeholders" : null
  },
  "order_by.placeholder" : {
    "message" : "搜尋",
    "description" : "",
    "placeholders" : null
  },
  "select_blog.help_text" : {
    "message" : "用於部落格範本時，將預設為現有部落格；用於其他地方時，則會預設為主要部落格。",
    "description" : "",
    "placeholders" : null
  },
  "select_blog.label" : {
    "message" : "選取要顯示的部落格",
    "description" : "",
    "placeholders" : null
  },
  "show_all_filters.label" : {
    "message" : "顯示所有篩選",
    "description" : "",
    "placeholders" : null
  }
}