{
  "background_color.default" : {
    "message" : "",
    "description" : null,
    "placeholders" : null
  },
  "background_color.help_text" : {
    "message" : "",
    "description" : null,
    "placeholders" : null
  },
  "background_color.inline_help_text" : {
    "message" : "",
    "description" : null,
    "placeholders" : null
  },
  "background_color.label" : {
    "message" : "Color",
    "description" : null,
    "placeholders" : null
  },
  "background_color.placeholder" : {
    "message" : "",
    "description" : null,
    "placeholders" : null
  },
  "expand_link_text.default" : {
    "message" : "Sien alles",
    "description" : "",
    "placeholders" : null
  },
  "expand_link_text.label" : {
    "message" : "Teks wat moet wys as meer as die maksimum waarde wat moet wys beskikbaar is. Los oop om skakel weg te laat",
    "description" : "",
    "placeholders" : null
  },
  "filter_type.choices.author" : {
    "message" : "Outeurs",
    "description" : "",
    "placeholders" : null
  },
  "filter_type.choices.month" : {
    "message" : "Maande",
    "description" : "",
    "placeholders" : null
  },
  "filter_type.choices.tag" : {
    "message" : "Etikette",
    "description" : "",
    "placeholders" : null
  },
  "filter_type.label" : {
    "message" : "Lys van waardes vir filterskakels",
    "description" : "",
    "placeholders" : null
  },
  "filter_type.placeholder" : {
    "message" : "Soek",
    "description" : "",
    "placeholders" : null
  },
  "list_title.default" : {
    "message" : "Plasings volgens etiket",
    "description" : "",
    "placeholders" : null
  },
  "list_title.label" : {
    "message" : "Lystitel om te wys",
    "description" : "",
    "placeholders" : null
  },
  "max_links.label" : {
    "message" : "Maksimum aantal filterwaardes wat moet wys. Los dit leeg om alles te wys",
    "description" : "",
    "placeholders" : null
  },
  "name" : {
    "message" : "Post Filter Section",
    "description" : null,
    "placeholders" : null
  },
  "order_by.choices.name" : {
    "message" : "Naam",
    "description" : "",
    "placeholders" : null
  },
  "order_by.choices.post_count" : {
    "message" : "Plasingtelling",
    "description" : "",
    "placeholders" : null
  },
  "order_by.label" : {
    "message" : "Rangskikking van waardes vir filterskakels",
    "description" : "",
    "placeholders" : null
  },
  "order_by.placeholder" : {
    "message" : "Soek",
    "description" : "",
    "placeholders" : null
  },
  "select_blog.help_text" : {
    "message" : "Die standaardkeuse sal die huidige blog in 'n blogsjabloon gebruik, of die primêre blog as dit elders gebruik word.",
    "description" : "",
    "placeholders" : null
  },
  "select_blog.label" : {
    "message" : "Kies blog om te wys",
    "description" : "",
    "placeholders" : null
  },
  "show_all_filters.label" : {
    "message" : "Wys alle filters",
    "description" : "",
    "placeholders" : null
  }
}