{
  "background_color.default" : {
    "message" : "",
    "description" : null,
    "placeholders" : null
  },
  "background_color.help_text" : {
    "message" : "",
    "description" : null,
    "placeholders" : null
  },
  "background_color.inline_help_text" : {
    "message" : "",
    "description" : null,
    "placeholders" : null
  },
  "background_color.label" : {
    "message" : "Color",
    "description" : null,
    "placeholders" : null
  },
  "background_color.placeholder" : {
    "message" : "",
    "description" : null,
    "placeholders" : null
  },
  "expand_link_text.default" : {
    "message" : "Προβολή όλων",
    "description" : null,
    "placeholders" : null
  },
  "expand_link_text.label" : {
    "message" : "Κείμενο προς εμφάνιση αν υπάρχουν διαθέσιμα περισσότερα από τη μέγιστη τιμή προς προβολή. Αφήστε το κενό για παράλειψη του συνδέσμου",
    "description" : null,
    "placeholders" : null
  },
  "filter_type.choices.author" : {
    "message" : "Συντάκτες",
    "description" : null,
    "placeholders" : null
  },
  "filter_type.choices.month" : {
    "message" : "Μήνες",
    "description" : null,
    "placeholders" : null
  },
  "filter_type.choices.tag" : {
    "message" : "Ετικέτες",
    "description" : null,
    "placeholders" : null
  },
  "filter_type.label" : {
    "message" : "Λίστα τιμών για συνδέσμους φίλτρου",
    "description" : null,
    "placeholders" : null
  },
  "filter_type.placeholder" : {
    "message" : "Αναζήτηση",
    "description" : null,
    "placeholders" : null
  },
  "list_title.default" : {
    "message" : "Αναρτήσεις ανά ετικέτα",
    "description" : null,
    "placeholders" : null
  },
  "list_title.label" : {
    "message" : "Τίτλος λίστας προς προβολή",
    "description" : null,
    "placeholders" : null
  },
  "max_links.label" : {
    "message" : "Μέγιστος αριθμός τιμών φίλτρου για προβολή. Αφήστε το κενό για προβολή όλων",
    "description" : null,
    "placeholders" : null
  },
  "name" : {
    "message" : "Post Filter Section",
    "description" : null,
    "placeholders" : null
  },
  "order_by.choices.name" : {
    "message" : "Όνομα",
    "description" : null,
    "placeholders" : null
  },
  "order_by.choices.post_count" : {
    "message" : "Πλήθος αναρτήσεων",
    "description" : null,
    "placeholders" : null
  },
  "order_by.label" : {
    "message" : "Ταξινόμηση τιμών για συνδέσμους φίλτρου",
    "description" : null,
    "placeholders" : null
  },
  "order_by.placeholder" : {
    "message" : "Αναζήτηση",
    "description" : null,
    "placeholders" : null
  },
  "select_blog.help_text" : {
    "message" : "Ως προεπιλογή θα χρησιμοποιηθεί το τρέχον ιστολόγιο όταν χρησιμοποιείται σε πρότυπο ιστολογίου ή το κύριο ιστολόγιο όταν χρησιμοποιείται αλλού.",
    "description" : null,
    "placeholders" : null
  },
  "select_blog.label" : {
    "message" : "Επιλέξτε ιστολόγιο για προβολή",
    "description" : null,
    "placeholders" : null
  },
  "show_all_filters.label" : {
    "message" : "Προβολή όλων των φίλτρων",
    "description" : "",
    "placeholders" : null
  }
}