{
  "global" : false,
  "icon" : "fontawesome-5.14.0:Bars:SOLID",
  "host_template_types" : [ "PAGE", "BLOG_POST", "BLOG_LISTING" ],
  "module_id" : 108613947565,
  "label" : "Menu",
  "is_available_for_new_content" : true
}