{
  "global" : false,
  "icon" : "fontawesome-5.14.0:PDF%20File:SOLID",
  "host_template_types" : [ "PAGE", "BLOG_POST", "BLOG_LISTING", "QUOTE" ],
  "module_id" : 108615619222,
  "label" : "Solutions Section - Bizphile",
  "is_available_for_new_content" : true
}