[ {
  "id" : "9fb4c08f-7f4d-8330-8b60-9d92cb6621c4",
  "name" : "style",
  "display_width" : null,
  "label" : "Style",
  "required" : false,
  "locked" : false,
  "children" : [ {
    "id" : "ace56986-e770-15d9-ef0e-1581fe44ba23",
    "name" : "background_options",
    "display_width" : null,
    "label" : "Background Options",
    "required" : false,
    "locked" : false,
    "display" : "select",
    "choices" : [ [ "background_color", "Background Color" ], [ "background_image", "Background Image" ], [ "background_gradient", "Background Gradient" ] ],
    "multiple" : false,
    "reordering_enabled" : true,
    "preset" : null,
    "type" : "choice",
    "default" : "background_color"
  }, {
    "id" : "8636dc85-341f-57d2-4e55-414ba0212369",
    "name" : "background_color",
    "display_width" : null,
    "label" : "Background Color",
    "required" : false,
    "locked" : false,
    "visibility" : {
      "controlling_field" : "ace56986-e770-15d9-ef0e-1581fe44ba23",
      "controlling_field_path" : null,
      "controlling_value_regex" : "background_color",
      "property" : null,
      "operator" : "MATCHES_REGEX",
      "access" : null,
      "hidden_subfields" : null
    },
    "type" : "color",
    "default" : {
      "color" : "#ebf5f5",
      "opacity" : 100
    }
  }, {
    "id" : "71773d80-15e1-c1c7-bdda-60b75d66f4b3",
    "name" : "background_image",
    "display_width" : null,
    "label" : "Background image",
    "required" : false,
    "locked" : false,
    "visibility" : {
      "controlling_field" : "ace56986-e770-15d9-ef0e-1581fe44ba23",
      "controlling_field_path" : null,
      "controlling_value_regex" : "background_image",
      "property" : null,
      "operator" : "MATCHES_REGEX",
      "access" : null,
      "hidden_subfields" : null
    },
    "type" : "backgroundimage",
    "default" : {
      "src" : "",
      "background_position" : "MIDDLE_CENTER",
      "background_size" : "cover"
    }
  }, {
    "id" : "7af78e5a-eff7-0d09-d99c-55346f14a7bc",
    "name" : "background_gradient",
    "display_width" : null,
    "label" : "Background Gradient",
    "required" : false,
    "locked" : false,
    "visibility" : {
      "controlling_field" : "ace56986-e770-15d9-ef0e-1581fe44ba23",
      "controlling_field_path" : null,
      "controlling_value_regex" : "background_gradient",
      "property" : null,
      "operator" : "MATCHES_REGEX",
      "access" : null,
      "hidden_subfields" : null
    },
    "type" : "gradient",
    "default" : { }
  }, {
    "id" : "544eae94-2181-d633-54f3-f11a22c3b682",
    "name" : "spacing_desktop_",
    "display_width" : null,
    "label" : "Spacing [ Desktop ]",
    "required" : false,
    "locked" : false,
    "type" : "spacing",
    "default" : {
      "padding" : {
        "top" : {
          "value" : 120,
          "units" : "px"
        },
        "bottom" : {
          "value" : 63,
          "units" : "px"
        },
        "left" : {
          "value" : 35,
          "units" : "px"
        },
        "right" : {
          "value" : 35,
          "units" : "px"
        }
      }
    }
  }, {
    "id" : "350b029b-e3d4-efb2-27b8-6a78c829be51",
    "name" : "spacing_tablet_",
    "display_width" : null,
    "label" : "Spacing [ Tablet ]",
    "required" : false,
    "locked" : false,
    "type" : "spacing",
    "default" : {
      "padding" : {
        "top" : {
          "value" : 80,
          "units" : "px"
        },
        "bottom" : {
          "value" : 40,
          "units" : "px"
        },
        "left" : {
          "value" : null,
          "units" : null
        },
        "right" : {
          "value" : null,
          "units" : null
        }
      }
    }
  }, {
    "id" : "daef047c-1304-2d96-ada3-42116bd0368a",
    "name" : "spacing_mobile_",
    "display_width" : null,
    "label" : "Spacing [ Mobile ]",
    "required" : false,
    "locked" : false,
    "type" : "spacing",
    "default" : {
      "padding" : {
        "top" : {
          "value" : 50,
          "units" : "px"
        },
        "bottom" : {
          "value" : 30,
          "units" : "px"
        },
        "left" : {
          "value" : 15,
          "units" : "px"
        },
        "right" : {
          "value" : 15,
          "units" : "px"
        }
      }
    }
  }, {
    "id" : "82ecc154-891c-225a-dbc6-92fc69781dba",
    "name" : "add_overlay_",
    "display_width" : null,
    "label" : "Add Overlay?",
    "required" : false,
    "locked" : false,
    "display" : "checkbox",
    "type" : "boolean",
    "default" : false
  }, {
    "id" : "2402b680-6747-8301-0724-1a01eca93224",
    "name" : "overlay_color",
    "display_width" : null,
    "label" : "Overlay Color",
    "required" : false,
    "locked" : false,
    "visibility" : {
      "controlling_field" : "82ecc154-891c-225a-dbc6-92fc69781dba",
      "controlling_field_path" : null,
      "controlling_value_regex" : "true",
      "property" : null,
      "operator" : "EQUAL",
      "access" : null,
      "hidden_subfields" : null
    },
    "type" : "color",
    "default" : {
      "color" : "#fff",
      "opacity" : 0
    }
  } ],
  "tab" : "STYLE",
  "expanded" : false,
  "type" : "group",
  "default" : {
    "background_options" : "background_color",
    "background_color" : {
      "color" : "#ebf5f5",
      "opacity" : 100
    },
    "background_image" : {
      "src" : "",
      "background_position" : "MIDDLE_CENTER",
      "background_size" : "cover"
    },
    "background_gradient" : { },
    "spacing_desktop_" : {
      "padding" : {
        "top" : {
          "value" : 120,
          "units" : "px"
        },
        "bottom" : {
          "value" : 63,
          "units" : "px"
        },
        "left" : {
          "value" : 35,
          "units" : "px"
        },
        "right" : {
          "value" : 35,
          "units" : "px"
        }
      }
    },
    "spacing_tablet_" : {
      "padding" : {
        "top" : {
          "value" : 80,
          "units" : "px"
        },
        "bottom" : {
          "value" : 40,
          "units" : "px"
        },
        "left" : {
          "value" : null,
          "units" : null
        },
        "right" : {
          "value" : null,
          "units" : null
        }
      }
    },
    "spacing_mobile_" : {
      "padding" : {
        "top" : {
          "value" : 50,
          "units" : "px"
        },
        "bottom" : {
          "value" : 30,
          "units" : "px"
        },
        "left" : {
          "value" : 15,
          "units" : "px"
        },
        "right" : {
          "value" : 15,
          "units" : "px"
        }
      }
    },
    "add_overlay_" : false,
    "overlay_color" : {
      "color" : "#fff",
      "opacity" : 0
    }
  }
}, {
  "id" : "332fdb05-d72a-722b-56b5-157631e8be86",
  "name" : "sub_title",
  "display_width" : null,
  "label" : "Sub Title",
  "required" : false,
  "locked" : false,
  "validation_regex" : "",
  "allow_new_line" : false,
  "show_emoji_picker" : false,
  "type" : "text",
  "default" : "BUSINESS TO BUSINESS"
}, {
  "id" : "26cf739b-8b69-051e-8dc0-4f9bb98615d8",
  "name" : "sub_title_color",
  "display_width" : null,
  "label" : "Sub Title Color",
  "required" : false,
  "locked" : false,
  "type" : "color",
  "default" : {
    "color" : "#fe5150",
    "opacity" : 100
  }
}, {
  "id" : "1c01ca6b-3721-ef6b-18a0-359597235467",
  "name" : "title",
  "display_width" : null,
  "label" : "Title",
  "required" : false,
  "locked" : false,
  "validation_regex" : "",
  "allow_new_line" : false,
  "show_emoji_picker" : false,
  "type" : "text",
  "default" : "Lorem ipsum dolor sit amet"
}, {
  "id" : "743512df-0064-9f1f-1880-9962ad377aad",
  "name" : "title_color",
  "display_width" : null,
  "label" : "Title Color",
  "required" : false,
  "locked" : false,
  "type" : "color",
  "default" : {
    "color" : "#333652",
    "opacity" : 100
  }
}, {
  "id" : "fd55f1e4-372b-bfff-f40c-5ec1472bcdb6",
  "name" : "text_color",
  "display_width" : null,
  "label" : "Text Color",
  "required" : false,
  "locked" : false,
  "type" : "color",
  "default" : {
    "color" : "#7a8a9e",
    "opacity" : 100
  }
}, {
  "id" : "695b068a-c8a9-c0e0-da8c-4947f2a67a44",
  "name" : "text",
  "display_width" : null,
  "label" : "Text",
  "required" : false,
  "locked" : false,
  "type" : "richtext",
  "default" : "<p>Lorem ipsum dolor sit amet, consectetur adipiscing elit. Ut elit tellus, luctus nec ullamcorper mattis, pulvinar dapibus leo.</p>"
}, {
  "id" : "07a7cd3a-33db-aacf-576f-c1ee190d6033",
  "name" : "percentage_group",
  "display_width" : null,
  "label" : "Percentage Group",
  "required" : false,
  "locked" : false,
  "occurrence" : {
    "min" : null,
    "max" : null,
    "sorting_label_field" : "6b2660e6-6e4a-e9fa-d87f-ecc669164c2d",
    "default" : null
  },
  "children" : [ {
    "id" : "6b2660e6-6e4a-e9fa-d87f-ecc669164c2d",
    "name" : "column_text",
    "display_width" : null,
    "label" : "Column Text",
    "required" : false,
    "locked" : false,
    "validation_regex" : "",
    "allow_new_line" : false,
    "show_emoji_picker" : false,
    "type" : "text",
    "default" : "DIGITAl STARTEGY"
  }, {
    "id" : "7b9b5626-2c1b-b9a1-fd69-bf782ddd7be6",
    "name" : "percentage_number",
    "display_width" : null,
    "label" : "Percentage Number",
    "required" : false,
    "locked" : false,
    "validation_regex" : "",
    "allow_new_line" : false,
    "show_emoji_picker" : false,
    "type" : "text",
    "default" : "90"
  }, {
    "id" : "e1087f8e-a749-eb74-f865-33fd14ae464b",
    "name" : "title_color",
    "display_width" : null,
    "label" : "Title Color",
    "required" : false,
    "locked" : false,
    "type" : "color",
    "default" : {
      "color" : "#333652",
      "opacity" : 100
    }
  }, {
    "id" : "c6744839-b674-7e93-0133-4c71d73a83eb",
    "name" : "percentage_text",
    "display_width" : null,
    "label" : "Percentage Text",
    "required" : false,
    "locked" : false,
    "validation_regex" : "",
    "allow_new_line" : false,
    "show_emoji_picker" : false,
    "type" : "text",
    "default" : "%"
  }, {
    "id" : "b846a1bc-91b2-0644-45c1-cab33ee94d98",
    "name" : "progress_bar_color",
    "display_width" : null,
    "label" : "Progress Bar Color",
    "required" : false,
    "locked" : false,
    "type" : "color",
    "default" : {
      "color" : "#fe5150",
      "opacity" : 100
    }
  } ],
  "tab" : "CONTENT",
  "expanded" : false,
  "type" : "group",
  "default" : {
    "column_text" : "DIGITAl STARTEGY",
    "percentage_number" : "90",
    "title_color" : {
      "color" : "#333652",
      "opacity" : 100
    },
    "percentage_text" : "%",
    "progress_bar_color" : {
      "color" : "#fe5150",
      "opacity" : 100
    }
  }
}, {
  "id" : "e31c0476-6bad-5e4c-fc11-dbd4e66b5ced",
  "name" : "image",
  "display_width" : null,
  "label" : "Image",
  "required" : false,
  "locked" : false,
  "responsive" : true,
  "resizable" : true,
  "show_loading" : false,
  "type" : "image",
  "default" : {
    "size_type" : "auto",
    "src" : "https://2720327.fs1.hubspotusercontent-na1.net/hubfs/2720327/Assets%20-%20Axacus/Images/tm-single3.jpg",
    "alt" : "tm-single3",
    "loading" : "lazy",
    "width" : 559,
    "height" : 530,
    "max_width" : 559,
    "max_height" : 530
  }
} ]