{
  "global" : false,
  "icon" : "fontawesome-5.14.0:Alternate%20User:SOLID",
  "host_template_types" : [ "PAGE", "BLOG_POST", "BLOG_LISTING", "QUOTE" ],
  "module_id" : 108615590326,
  "label" : "Who We Are Section - Bizphile",
  "is_available_for_new_content" : true
}