{
  "global" : false,
  "master_language" : "en",
  "icon" : "fontawesome-5.14.0:table:SOLID",
  "host_template_types" : [ "BLOG_LISTING" ],
  "module_id" : 108615668905,
  "label" : "blog-pagination - Bizphile",
  "is_available_for_new_content" : true
}