{
  "background_color.default" : {
    "message" : "",
    "description" : null,
    "placeholders" : null
  },
  "background_color.help_text" : {
    "message" : "",
    "description" : null,
    "placeholders" : null
  },
  "background_color.inline_help_text" : {
    "message" : "",
    "description" : null,
    "placeholders" : null
  },
  "background_color.label" : {
    "message" : "Color",
    "description" : null,
    "placeholders" : null
  },
  "background_color.placeholder" : {
    "message" : "",
    "description" : null,
    "placeholders" : null
  },
  "expand_link_text.default" : {
    "message" : "Visualizza tutti",
    "description" : null,
    "placeholders" : null
  },
  "expand_link_text.label" : {
    "message" : "Testo da visualizzare se sono disponibili più valori rispetto al valore massimo da visualizzare. Lascia il campo vuoto per omettere il link",
    "description" : null,
    "placeholders" : null
  },
  "filter_type.choices.author" : {
    "message" : "Autori",
    "description" : null,
    "placeholders" : null
  },
  "filter_type.choices.month" : {
    "message" : "Mesi",
    "description" : null,
    "placeholders" : null
  },
  "filter_type.choices.tag" : {
    "message" : "Tag",
    "description" : null,
    "placeholders" : null
  },
  "filter_type.label" : {
    "message" : "Elenco di valori per i link del filtro",
    "description" : null,
    "placeholders" : null
  },
  "filter_type.placeholder" : {
    "message" : "Cerca",
    "description" : null,
    "placeholders" : null
  },
  "list_title.default" : {
    "message" : "Post per tag",
    "description" : null,
    "placeholders" : null
  },
  "list_title.label" : {
    "message" : "Elenca i titoli da visualizzare",
    "description" : null,
    "placeholders" : null
  },
  "max_links.label" : {
    "message" : "Numero massimo di valori del filtro da visualizzare. Lascia il campo vuoto per mostrare tutto",
    "description" : null,
    "placeholders" : null
  },
  "name" : {
    "message" : "Post Filter Section",
    "description" : null,
    "placeholders" : null
  },
  "order_by.choices.name" : {
    "message" : "Nome",
    "description" : null,
    "placeholders" : null
  },
  "order_by.choices.post_count" : {
    "message" : "Numero di post",
    "description" : null,
    "placeholders" : null
  },
  "order_by.label" : {
    "message" : "Ordinamento dei valori per i link del filtro",
    "description" : null,
    "placeholders" : null
  },
  "order_by.placeholder" : {
    "message" : "Cerca",
    "description" : null,
    "placeholders" : null
  },
  "select_blog.help_text" : {
    "message" : "L'impostazione predefinita userà il blog corrente quando usata in un modello di blog o il blog principale quando usata altrove.",
    "description" : null,
    "placeholders" : null
  },
  "select_blog.label" : {
    "message" : "Seleziona il blog da visualizzare",
    "description" : null,
    "placeholders" : null
  },
  "show_all_filters.label" : {
    "message" : "Mostra tutti i filtri",
    "description" : "",
    "placeholders" : null
  }
}