{
  "global" : false,
  "icon" : "fontawesome-5.14.0:Percent:SOLID",
  "host_template_types" : [ "PAGE", "BLOG_POST", "BLOG_LISTING", "QUOTE" ],
  "module_id" : 108615634438,
  "label" : "What we Offer Section - Bizphile",
  "is_available_for_new_content" : true
}